//Figure 4 Elasticity

cl1 = 5.0;

Point(1) = {0, 20, 0, cl1};
Point(2) = {20, 20, 0, cl1};
Point(3) = {20, -20, 0, cl1};
Point(4) = {0, -20, 0, cl1};
Point(5) = {2, 18, 0, cl1};
Point(6) = {18, 18, 0, cl1};
Point(7) = {18, -18, 0, cl1};
Point(8) = {2, -18, 0, cl1};


Line(1) = {1,2};
Line(2) = {2,3};
Line(3) = {3,4};
Line(4) = {4,1};
Line(5) = {5,6};
Line(6) = {6,7};
Line(7) = {7,8};
Line(8) = {8,5};



Line Loop(1) = {1, 2, 3, 4};
Line Loop(2) = {5,6,7,8};
Plane Surface(1) = {1,2};

object[] = Extrude{0, 0, 1000}{Surface{1};};
Surface Loop(1) = {1, object[0],object[2] ,object[3] ,object[4], object[5], object[6], object[7], object[8],object[9]};


Delete{ Volume{object[1]};}
Volume(100) = {1};

Physical Volume(1) = {1};
Physical Surface(1) = {1};

Delete{ Volume{object[1]};}

